{
  "title": "Finding unused fixtures in your tests",
  "description": "An article describing how to find unused fixtures in your tests.",
  "long_description": "Do you have a lot of fixtures in your pytest tests? Are you sure all of them are used? Do you use dynamic fixtures? Learn how to detect unused fixtures with <a href=\"https://pypi.org/project/pytest-unused-fixtures/\" target=\"_blank\">pytest-unused-fixtures</a>.",
  "published": "2023-08-05"
}
