{
  "title": "Loading Django management commands from custom locations",
  "description": "An article describing loading management commands from custom locations.",
  "long_description": "Django only allows loading management commands from Django apps - which can be a little annoying. This article describes how this can be circumvented to load management commands from custom locations.",
  "published": "2024-11-04"
}
